simulation/qsim/ProjetoSensorDeAviso.msim.vcd
$comment
	File created using the following command:
		vcd file ProjetoSensorDeAviso.msim.vcd -direction
$end
$date
	Thu Oct 26 17:24:25 2023
$end
$version
	ModelSim Version 2020.1
$end
$timescale
	1ps
$end

$scope module projetosensordeaviso_vhd_vec_tst $end
$var wire 1 ! clk $end
$var wire 1 " dezenas_7seg [6] $end
$var wire 1 # dezenas_7seg [5] $end
$var wire 1 $ dezenas_7seg [4] $end
$var wire 1 % dezenas_7seg [3] $end
$var wire 1 & dezenas_7seg [2] $end
$var wire 1 ' dezenas_7seg [1] $end
$var wire 1 ( dezenas_7seg [0] $end
$var wire 1 ) ECHO_HC_SR04 $end
$var wire 1 * s_motor [1] $end
$var wire 1 + s_motor [0] $end
$var wire 1 , simuld [3] $end
$var wire 1 - simuld [2] $end
$var wire 1 . simuld [1] $end
$var wire 1 / simuld [0] $end
$var wire 1 0 TRIG_HC_SR04 $end
$var wire 1 1 unidades_7seg [6] $end
$var wire 1 2 unidades_7seg [5] $end
$var wire 1 3 unidades_7seg [4] $end
$var wire 1 4 unidades_7seg [3] $end
$var wire 1 5 unidades_7seg [2] $end
$var wire 1 6 unidades_7seg [1] $end
$var wire 1 7 unidades_7seg [0] $end

$scope module i1 $end
$var wire 1 8 gnd $end
$var wire 1 9 vcc $end
$var wire 1 : unknown $end
$var wire 1 ; devoe $end
$var wire 1 < devclrn $end
$var wire 1 = devpor $end
$var wire 1 > ww_devoe $end
$var wire 1 ? ww_devclrn $end
$var wire 1 @ ww_devpor $end
$var wire 1 A ww_clk $end
$var wire 1 B ww_unidades_7seg [6] $end
$var wire 1 C ww_unidades_7seg [5] $end
$var wire 1 D ww_unidades_7seg [4] $end
$var wire 1 E ww_unidades_7seg [3] $end
$var wire 1 F ww_unidades_7seg [2] $end
$var wire 1 G ww_unidades_7seg [1] $end
$var wire 1 H ww_unidades_7seg [0] $end
$var wire 1 I ww_dezenas_7seg [6] $end
$var wire 1 J ww_dezenas_7seg [5] $end
$var wire 1 K ww_dezenas_7seg [4] $end
$var wire 1 L ww_dezenas_7seg [3] $end
$var wire 1 M ww_dezenas_7seg [2] $end
$var wire 1 N ww_dezenas_7seg [1] $end
$var wire 1 O ww_dezenas_7seg [0] $end
$var wire 1 P ww_s_motor [1] $end
$var wire 1 Q ww_s_motor [0] $end
$var wire 1 R ww_simuld [3] $end
$var wire 1 S ww_simuld [2] $end
$var wire 1 T ww_simuld [1] $end
$var wire 1 U ww_simuld [0] $end
$var wire 1 V ww_TRIG_HC_SR04 $end
$var wire 1 W ww_ECHO_HC_SR04 $end
$var wire 1 X \clk~inputclkctrl_INCLK_bus\ [3] $end
$var wire 1 Y \clk~inputclkctrl_INCLK_bus\ [2] $end
$var wire 1 Z \clk~inputclkctrl_INCLK_bus\ [1] $end
$var wire 1 [ \clk~inputclkctrl_INCLK_bus\ [0] $end
$var wire 1 \ \unidades_7seg[0]~output_o\ $end
$var wire 1 ] \unidades_7seg[1]~output_o\ $end
$var wire 1 ^ \unidades_7seg[2]~output_o\ $end
$var wire 1 _ \unidades_7seg[3]~output_o\ $end
$var wire 1 ` \unidades_7seg[4]~output_o\ $end
$var wire 1 a \unidades_7seg[5]~output_o\ $end
$var wire 1 b \unidades_7seg[6]~output_o\ $end
$var wire 1 c \dezenas_7seg[0]~output_o\ $end
$var wire 1 d \dezenas_7seg[1]~output_o\ $end
$var wire 1 e \dezenas_7seg[2]~output_o\ $end
$var wire 1 f \dezenas_7seg[3]~output_o\ $end
$var wire 1 g \dezenas_7seg[4]~output_o\ $end
$var wire 1 h \dezenas_7seg[5]~output_o\ $end
$var wire 1 i \dezenas_7seg[6]~output_o\ $end
$var wire 1 j \s_motor[0]~output_o\ $end
$var wire 1 k \s_motor[1]~output_o\ $end
$var wire 1 l \TRIG_HC_SR04~output_o\ $end
$var wire 1 m \clk~input_o\ $end
$var wire 1 n \clk~inputclkctrl_outclk\ $end
$var wire 1 o \ECHO_HC_SR04~input_o\ $end
$var wire 1 p \medidor1|eco_nsinc~q\ $end
$var wire 1 q \medidor1|eco_sinc~feeder_combout\ $end
$var wire 1 r \medidor1|eco_sinc~q\ $end
$var wire 1 s \medidor1|eco_pasado~feeder_combout\ $end
$var wire 1 t \medidor1|eco_pasado~q\ $end
$var wire 1 u \medidor1|Add1~0_combout\ $end
$var wire 1 v \medidor1|centimetros_unid~9_combout\ $end
$var wire 1 w \medidor1|cuenta[0]~17_combout\ $end
$var wire 1 x \medidor1|Trigger~0_combout\ $end
$var wire 1 y \medidor1|Equal1~1_combout\ $end
$var wire 1 z \medidor1|cuenta[5]~28\ $end
$var wire 1 { \medidor1|cuenta[6]~29_combout\ $end
$var wire 1 | \medidor1|digitounidad[3]~0_combout\ $end
$var wire 1 } \medidor1|cuenta[6]~30\ $end
$var wire 1 ~ \medidor1|cuenta[7]~31_combout\ $end
$var wire 1 !! \medidor1|cuenta[7]~32\ $end
$var wire 1 "! \medidor1|cuenta[8]~34_combout\ $end
$var wire 1 #! \medidor1|cuenta[8]~35\ $end
$var wire 1 $! \medidor1|cuenta[9]~36_combout\ $end
$var wire 1 %! \medidor1|cuenta[9]~37\ $end
$var wire 1 &! \medidor1|cuenta[10]~38_combout\ $end
$var wire 1 '! \medidor1|cuenta[10]~39\ $end
$var wire 1 (! \medidor1|cuenta[11]~40_combout\ $end
$var wire 1 )! \medidor1|Equal1~0_combout\ $end
$var wire 1 *! \medidor1|cuenta[11]~41\ $end
$var wire 1 +! \medidor1|cuenta[12]~42_combout\ $end
$var wire 1 ,! \medidor1|cuenta[12]~43\ $end
$var wire 1 -! \medidor1|cuenta[13]~44_combout\ $end
$var wire 1 .! \medidor1|cuenta[13]~45\ $end
$var wire 1 /! \medidor1|cuenta[14]~46_combout\ $end
$var wire 1 0! \medidor1|cuenta[14]~47\ $end
$var wire 1 1! \medidor1|cuenta[15]~48_combout\ $end
$var wire 1 2! \medidor1|cuenta[15]~49\ $end
$var wire 1 3! \medidor1|cuenta[16]~50_combout\ $end
$var wire 1 4! \medidor1|Equal0~1_combout\ $end
$var wire 1 5! \medidor1|Equal0~2_combout\ $end
$var wire 1 6! \medidor1|Equal0~3_combout\ $end
$var wire 1 7! \medidor1|Equal1~2_combout\ $end
$var wire 1 8! \medidor1|cuenta[0]~33_combout\ $end
$var wire 1 9! \medidor1|cuenta[0]~18\ $end
$var wire 1 :! \medidor1|cuenta[1]~19_combout\ $end
$var wire 1 ;! \medidor1|cuenta[1]~20\ $end
$var wire 1 <! \medidor1|cuenta[2]~21_combout\ $end
$var wire 1 =! \medidor1|cuenta[2]~22\ $end
$var wire 1 >! \medidor1|cuenta[3]~23_combout\ $end
$var wire 1 ?! \medidor1|cuenta[3]~24\ $end
$var wire 1 @! \medidor1|cuenta[4]~25_combout\ $end
$var wire 1 A! \medidor1|cuenta[4]~26\ $end
$var wire 1 B! \medidor1|cuenta[5]~27_combout\ $end
$var wire 1 C! \medidor1|Equal0~4_combout\ $end
$var wire 1 D! \medidor1|Equal0~0_combout\ $end
$var wire 1 E! \medidor1|espera~0_combout\ $end
$var wire 1 F! \medidor1|centimetros[0]~16_combout\ $end
$var wire 1 G! \medidor1|centimetros[0]~17\ $end
$var wire 1 H! \medidor1|centimetros[1]~18_combout\ $end
$var wire 1 I! \medidor1|centimetros[1]~19\ $end
$var wire 1 J! \medidor1|centimetros[2]~20_combout\ $end
$var wire 1 K! \medidor1|centimetros[2]~21\ $end
$var wire 1 L! \medidor1|centimetros[3]~22_combout\ $end
$var wire 1 M! \medidor1|centimetros[3]~23\ $end
$var wire 1 N! \medidor1|centimetros[4]~24_combout\ $end
$var wire 1 O! \medidor1|centimetros[4]~25\ $end
$var wire 1 P! \medidor1|centimetros[5]~26_combout\ $end
$var wire 1 Q! \medidor1|centimetros[5]~27\ $end
$var wire 1 R! \medidor1|centimetros[6]~28_combout\ $end
$var wire 1 S! \medidor1|centimetros[6]~29\ $end
$var wire 1 T! \medidor1|centimetros[7]~30_combout\ $end
$var wire 1 U! \medidor1|centimetros[7]~31\ $end
$var wire 1 V! \medidor1|centimetros[8]~32_combout\ $end
$var wire 1 W! \medidor1|centimetros[8]~33\ $end
$var wire 1 X! \medidor1|centimetros[9]~34_combout\ $end
$var wire 1 Y! \medidor1|centimetros[9]~35\ $end
$var wire 1 Z! \medidor1|centimetros[10]~36_combout\ $end
$var wire 1 [! \medidor1|centimetros[10]~37\ $end
$var wire 1 \! \medidor1|centimetros[11]~38_combout\ $end
$var wire 1 ]! \medidor1|centimetros[11]~39\ $end
$var wire 1 ^! \medidor1|centimetros[12]~40_combout\ $end
$var wire 1 _! \medidor1|centimetros[12]~41\ $end
$var wire 1 `! \medidor1|centimetros[13]~42_combout\ $end
$var wire 1 a! \medidor1|centimetros[13]~43\ $end
$var wire 1 b! \medidor1|centimetros[14]~44_combout\ $end
$var wire 1 c! \medidor1|centimetros[14]~45\ $end
$var wire 1 d! \medidor1|centimetros[15]~46_combout\ $end
$var wire 1 e! \medidor1|espera~1_combout\ $end
$var wire 1 f! \medidor1|espera~4_combout\ $end
$var wire 1 g! \medidor1|espera~5_combout\ $end
$var wire 1 h! \medidor1|espera~2_combout\ $end
$var wire 1 i! \medidor1|espera~3_combout\ $end
$var wire 1 j! \medidor1|digitounidad[3]~1_combout\ $end
$var wire 1 k! \medidor1|espera~6_combout\ $end
$var wire 1 l! \medidor1|espera~7_combout\ $end
$var wire 1 m! \medidor1|espera~8_combout\ $end
$var wire 1 n! \medidor1|espera~q\ $end
$var wire 1 o! \medidor1|centimetros_unid[3]~6_combout\ $end
$var wire 1 p! \medidor1|Add1~1_combout\ $end
$var wire 1 q! \medidor1|centimetros_unid~10_combout\ $end
$var wire 1 r! \medidor1|centimetros_dece[3]~4_combout\ $end
$var wire 1 s! \medidor1|centimetros_unid~8_combout\ $end
$var wire 1 t! \medidor1|centimetros_unid~7_combout\ $end
$var wire 1 u! \medidor1|sal_unid[1]~feeder_combout\ $end
$var wire 1 v! \medidor1|digitounidad[1]~feeder_combout\ $end
$var wire 1 w! \medidor1|sal_unid[3]~feeder_combout\ $end
$var wire 1 x! \medidor1|digitounidad[3]~feeder_combout\ $end
$var wire 1 y! \medidor1|sal_unid[2]~feeder_combout\ $end
$var wire 1 z! \medidor1|digitounidad[2]~feeder_combout\ $end
$var wire 1 {! \medidor1|sal_unid[0]~feeder_combout\ $end
$var wire 1 |! \medidor1|digitounidad[0]~feeder_combout\ $end
$var wire 1 }! \conversor1|Mux6~0_combout\ $end
$var wire 1 ~! \conversor1|Mux5~0_combout\ $end
$var wire 1 !" \conversor1|Mux4~0_combout\ $end
$var wire 1 "" \conversor1|Mux3~0_combout\ $end
$var wire 1 #" \conversor1|Mux2~0_combout\ $end
$var wire 1 $" \conversor1|Mux1~0_combout\ $end
$var wire 1 %" \conversor1|Mux0~0_combout\ $end
$var wire 1 &" \medidor1|centimetros_dece~5_combout\ $end
$var wire 1 '" \medidor1|centimetros_dece[3]~6_combout\ $end
$var wire 1 (" \medidor1|sal_dece[0]~feeder_combout\ $end
$var wire 1 )" \medidor1|centimetros_dece~7_combout\ $end
$var wire 1 *" \medidor1|Add0~0_combout\ $end
$var wire 1 +" \medidor1|centimetros_dece~9_combout\ $end
$var wire 1 ," \medidor1|sal_dece[2]~feeder_combout\ $end
$var wire 1 -" \medidor1|centimetros_dece~8_combout\ $end
$var wire 1 ." \medidor1|sal_dece[1]~feeder_combout\ $end
$var wire 1 /" \conversor2|Mux6~0_combout\ $end
$var wire 1 0" \conversor2|Mux5~0_combout\ $end
$var wire 1 1" \conversor2|Mux4~0_combout\ $end
$var wire 1 2" \conversor2|Mux3~0_combout\ $end
$var wire 1 3" \conversor2|Mux2~0_combout\ $end
$var wire 1 4" \conversor2|Mux1~0_combout\ $end
$var wire 1 5" \conversor2|Mux0~0_combout\ $end
$var wire 1 6" \simuld[2]~input_o\ $end
$var wire 1 7" \simuld[3]~input_o\ $end
$var wire 1 8" \simuld[1]~input_o\ $end
$var wire 1 9" \simuld[0]~input_o\ $end
$var wire 1 :" \maquina1|Selector2~0_combout\ $end
$var wire 1 ;" \maquina1|LessThan0~0_combout\ $end
$var wire 1 <" \maquina1|Selector0~0_combout\ $end
$var wire 1 =" \maquina1|Selector2~1_combout\ $end
$var wire 1 >" \maquina1|Selector2~2_combout\ $end
$var wire 1 ?" \maquina1|Selector2~3_combout\ $end
$var wire 1 @" \maquina1|Selector2~4_combout\ $end
$var wire 1 A" \maquina1|Selector2~5_combout\ $end
$var wire 1 B" \maquina1|Selector0~1_combout\ $end
$var wire 1 C" \maquina1|estado.SEGURO~q\ $end
$var wire 1 D" \maquina1|Selector2~7_combout\ $end
$var wire 1 E" \maquina1|Selector2~8_combout\ $end
$var wire 1 F" \maquina1|estado.PERIGO~q\ $end
$var wire 1 G" \maquina1|Selector2~6_combout\ $end
$var wire 1 H" \maquina1|Selector1~0_combout\ $end
$var wire 1 I" \maquina1|Selector1~1_combout\ $end
$var wire 1 J" \maquina1|estado.CUIDADO~q\ $end
$var wire 1 K" \maquina1|saida_motor[0]~feeder_combout\ $end
$var wire 1 L" \maquina1|saida_motor[1]~feeder_combout\ $end
$var wire 1 M" \medidor1|sensor_disp~0_combout\ $end
$var wire 1 N" \medidor1|sensor_disp~1_combout\ $end
$var wire 1 O" \medidor1|sensor_disp~q\ $end
$var wire 1 P" \medidor1|cuenta\ [16] $end
$var wire 1 Q" \medidor1|cuenta\ [15] $end
$var wire 1 R" \medidor1|cuenta\ [14] $end
$var wire 1 S" \medidor1|cuenta\ [13] $end
$var wire 1 T" \medidor1|cuenta\ [12] $end
$var wire 1 U" \medidor1|cuenta\ [11] $end
$var wire 1 V" \medidor1|cuenta\ [10] $end
$var wire 1 W" \medidor1|cuenta\ [9] $end
$var wire 1 X" \medidor1|cuenta\ [8] $end
$var wire 1 Y" \medidor1|cuenta\ [7] $end
$var wire 1 Z" \medidor1|cuenta\ [6] $end
$var wire 1 [" \medidor1|cuenta\ [5] $end
$var wire 1 \" \medidor1|cuenta\ [4] $end
$var wire 1 ]" \medidor1|cuenta\ [3] $end
$var wire 1 ^" \medidor1|cuenta\ [2] $end
$var wire 1 _" \medidor1|cuenta\ [1] $end
$var wire 1 `" \medidor1|cuenta\ [0] $end
$var wire 1 a" \medidor1|centimetros\ [15] $end
$var wire 1 b" \medidor1|centimetros\ [14] $end
$var wire 1 c" \medidor1|centimetros\ [13] $end
$var wire 1 d" \medidor1|centimetros\ [12] $end
$var wire 1 e" \medidor1|centimetros\ [11] $end
$var wire 1 f" \medidor1|centimetros\ [10] $end
$var wire 1 g" \medidor1|centimetros\ [9] $end
$var wire 1 h" \medidor1|centimetros\ [8] $end
$var wire 1 i" \medidor1|centimetros\ [7] $end
$var wire 1 j" \medidor1|centimetros\ [6] $end
$var wire 1 k" \medidor1|centimetros\ [5] $end
$var wire 1 l" \medidor1|centimetros\ [4] $end
$var wire 1 m" \medidor1|centimetros\ [3] $end
$var wire 1 n" \medidor1|centimetros\ [2] $end
$var wire 1 o" \medidor1|centimetros\ [1] $end
$var wire 1 p" \medidor1|centimetros\ [0] $end
$var wire 1 q" \medidor1|digitounidad\ [3] $end
$var wire 1 r" \medidor1|digitounidad\ [2] $end
$var wire 1 s" \medidor1|digitounidad\ [1] $end
$var wire 1 t" \medidor1|digitounidad\ [0] $end
$var wire 1 u" \medidor1|digitodecena\ [3] $end
$var wire 1 v" \medidor1|digitodecena\ [2] $end
$var wire 1 w" \medidor1|digitodecena\ [1] $end
$var wire 1 x" \medidor1|digitodecena\ [0] $end
$var wire 1 y" \medidor1|sal_dece\ [3] $end
$var wire 1 z" \medidor1|sal_dece\ [2] $end
$var wire 1 {" \medidor1|sal_dece\ [1] $end
$var wire 1 |" \medidor1|sal_dece\ [0] $end
$var wire 1 }" \maquina1|saida_motor\ [1] $end
$var wire 1 ~" \maquina1|saida_motor\ [0] $end
$var wire 1 !# \medidor1|sal_unid\ [3] $end
$var wire 1 "# \medidor1|sal_unid\ [2] $end
$var wire 1 ## \medidor1|sal_unid\ [1] $end
$var wire 1 $# \medidor1|sal_unid\ [0] $end
$var wire 1 %# \medidor1|centimetros_unid\ [3] $end
$var wire 1 &# \medidor1|centimetros_unid\ [2] $end
$var wire 1 '# \medidor1|centimetros_unid\ [1] $end
$var wire 1 (# \medidor1|centimetros_unid\ [0] $end
$var wire 1 )# \medidor1|centimetros_dece\ [3] $end
$var wire 1 *# \medidor1|centimetros_dece\ [2] $end
$var wire 1 +# \medidor1|centimetros_dece\ [1] $end
$var wire 1 ,# \medidor1|centimetros_dece\ [0] $end
$var wire 1 -# \medidor1|ALT_INV_digitounidad[3]~0_combout\ $end
$var wire 1 .# \conversor2|ALT_INV_Mux0~0_combout\ $end
$var wire 1 /# \conversor1|ALT_INV_Mux0~0_combout\ $end
$upscope $end
$upscope $end
$enddefinitions $end
#0
$dumpvars
0!
x)
00
08
19
x:
1;
1<
1=
1>
1?
1@
0A
0V
xW
0\
0]
0^
0_
0`
0a
1b
0c
0d
0e
0f
0g
0h
1i
0j
0k
0l
0m
0n
xo
0p
0q
0r
0s
0t
0u
0v
1w
0x
0y
1z
0{
0|
0}
0~
1!!
0"!
0#!
0$!
1%!
0&!
0'!
0(!
0)!
1*!
0+!
0,!
0-!
1.!
0/!
00!
01!
12!
03!
04!
15!
06!
07!
08!
09!
0:!
1;!
0<!
0=!
0>!
1?!
0@!
0A!
0B!
0C!
0D!
0E!
1F!
0G!
0H!
1I!
0J!
0K!
0L!
1M!
0N!
0O!
0P!
1Q!
0R!
0S!
0T!
1U!
0V!
0W!
0X!
1Y!
0Z!
0[!
0\!
1]!
0^!
0_!
0`!
1a!
0b!
0c!
0d!
0e!
1f!
1g!
1h!
1i!
0j!
0k!
1l!
0m!
0n!
0o!
0p!
0q!
0r!
1s!
0t!
0u!
0v!
0w!
0x!
0y!
0z!
0{!
0|!
0}!
0~!
0!"
0""
0#"
0$"
0%"
1&"
0'"
0("
0)"
0*"
0+"
0,"
0-"
0."
0/"
00"
01"
02"
03"
04"
05"
06"
07"
08"
09"
1:"
1;"
0<"
1="
1>"
0?"
0@"
1A"
1B"
0C"
1D"
1E"
0F"
0G"
0H"
0I"
0J"
0K"
0L"
1M"
1N"
0O"
1-#
1.#
1/#
0,
0-
0.
0/
11
02
03
04
05
06
07
1"
0#
0$
0%
0&
0'
0(
0*
0+
1B
0C
0D
0E
0F
0G
0H
1I
0J
0K
0L
0M
0N
0O
0P
0Q
0R
0S
0T
0U
0P"
0Q"
0R"
0S"
0T"
0U"
0V"
0W"
0X"
0Y"
0Z"
0["
0\"
0]"
0^"
0_"
0`"
0a"
0b"
0c"
0d"
0e"
0f"
0g"
0h"
0i"
0j"
0k"
0l"
0m"
0n"
0o"
0p"
0q"
0r"
0s"
0t"
0u"
0v"
0w"
0x"
0y"
0z"
0{"
0|"
0}"
0~"
0!#
0"#
0##
0$#
0%#
0&#
0'#
0(#
0)#
0*#
0+#
0,#
1X
1Y
1Z
0[
$end
#5000
1!
1A
1m
1[
1n
xp
1`"
1C"
1F"
1O"
1L"
0>"
0D"
1H"
0w
19!
xq
1:!
1I"
0E"
0A"
1l
1E"
0I"
1V
10
#10000
0!
0A
0m
0[
0n
#15000
1!
1A
1m
1[
1n
xr
0`"
1_"
1}"
0:!
0;!
1w
09!
xs
xx
xs!
x&"
1:!
1;!
1<!
1k
0<!
1P
1*
#20000
0!
0A
0m
0[
0n
#25000
1!
1A
1m
1[
1n
xt
1`"
0w
19!
1y
xj!
0:!
0;!
1<!
#30000
0!
0A
0m
0[
0n
#35000
1!
1A
1m
1[
1n
0`"
0_"
1^"
0<!
1=!
1:!
1;!
1w
09!
0y
0:!
1<!
0=!
1>!
0>!
#40000
0!
0A
0m
0[
0n
#45000
1!
1A
1m
1[
1n
1`"
0w
19!
1:!
#50000
0!
0A
0m
0[
0n
#55000
1!
1A
1m
1[
1n
0`"
1_"
0:!
0;!
1w
09!
1:!
1;!
0<!
1=!
1>!
1<!
0=!
0>!
#60000
0!
0A
0m
0[
0n
#65000
1!
1A
1m
1[
1n
1`"
0w
19!
0:!
0;!
0<!
1=!
1>!
#70000
0!
0A
0m
0[
0n
#75000
1!
1A
1m
1[
1n
0`"
0_"
0^"
1]"
0>!
0?!
1<!
0=!
1:!
1;!
1w
09!
0:!
0<!
1>!
1?!
1@!
0@!
#80000
0!
1,
0A
1R
17"
0m
0[
0;"
0="
1G"
0B"
0E"
0n
#85000
1!
1A
1m
1[
1n
1`"
0C"
0F"
0G"
0L"
1@"
0w
19!
1:!
#90000
0!
0A
0m
0[
0n
#95000
1!
1A
1m
1[
1n
0`"
1_"
0}"
0:!
0;!
1w
09!
1:!
1;!
1<!
0k
0<!
0P
0*
#100000
0!
0,
0A
0R
07"
0m
0[
1;"
1="
0@"
1>"
1D"
0H"
0n
1A"
1B"
1E"
#105000
1!
1A
1m
1[
1n
1`"
1C"
1F"
1L"
0>"
0D"
1H"
0w
19!
1y
0:!
0;!
1I"
0E"
0A"
1E"
0I"
1<!
#110000
0!
0A
0m
0[
0n
#115000
1!
1A
1m
1[
1n
0`"
0_"
1^"
1}"
0<!
1=!
1:!
1;!
1w
09!
0y
0:!
1<!
0=!
0>!
0?!
1k
1@!
1>!
1?!
1P
1*
0@!
#120000
0!
0A
0m
0[
0n
#125000
1!
1A
1m
1[
1n
1`"
0w
19!
1:!
#130000
0!
0A
0m
0[
0n
#135000
1!
1A
1m
1[
1n
0`"
1_"
0:!
0;!
1w
09!
1:!
1;!
0<!
1=!
0>!
0?!
1<!
0=!
1>!
1?!
1@!
0@!
#140000
0!
0A
0m
0[
0n
#145000
1!
1A
1m
1[
1n
1`"
0w
19!
0:!
0;!
0<!
1=!
0>!
0?!
1@!
#150000
0!
0A
0m
0[
0n
#155000
1!
1A
1m
1[
1n
0`"
0_"
0^"
0]"
1\"
0@!
1A!
1>!
1?!
1<!
0=!
1:!
1;!
1w
09!
0:!
0<!
0>!
1@!
0A!
1B!
0B!
#160000
0!
0A
0m
0[
0n
#165000
1!
1A
1m
1[
1n
1`"
0w
19!
1:!
#170000
0!
1-
0A
1S
16"
0m
0[
0:"
0;"
1@"
1A"
0n
0E"
1I"
#175000
1!
1A
1m
1[
1n
0`"
1_"
0F"
1J"
1K"
0A"
0L"
0:!
0;!
1w
09!
1:!
1;!
1<!
0<!
#180000
0!
0A
0m
0[
0n
#185000
1!
1A
1m
1[
1n
1`"
1~"
0}"
0w
19!
1y
0:!
0;!
0k
1j
1<!
0P
1Q
1+
0*
#190000
0!
0A
0m
0[
0n
#195000
1!
1A
1m
1[
1n
0`"
0_"
1^"
0<!
1=!
1:!
1;!
1w
09!
0y
0:!
1<!
0=!
1>!
0>!
#200000
0!
0A
0m
0[
0n
#205000
1!
1A
1m
1[
1n
1`"
0w
19!
1:!
#210000
0!
0A
0m
0[
0n
#215000
1!
1A
1m
1[
1n
0`"
1_"
0:!
0;!
1w
09!
1:!
1;!
0<!
1=!
1>!
1<!
0=!
0>!
#220000
0!
0A
0m
0[
0n
#225000
1!
1A
1m
1[
1n
1`"
0w
19!
0:!
0;!
0<!
1=!
1>!
#230000
0!
0A
0m
0[
0n
#235000
1!
1A
1m
1[
1n
0`"
0_"
0^"
1]"
0>!
0?!
1<!
0=!
1:!
1;!
1w
09!
0:!
0<!
1>!
1?!
0@!
1A!
1B!
1@!
0A!
0B!
#240000
0!
0A
0m
0[
0n
#245000
1!
1A
1m
1[
1n
1`"
0w
19!
1:!
#250000
0!
0-
0A
0S
06"
0m
0[
1:"
1;"
0@"
1?"
1D"
0H"
0n
1A"
1E"
0I"
#255000
1!
1A
1m
1[
1n
0`"
1_"
1F"
0J"
0?"
0D"
1H"
0K"
1L"
0:!
0;!
1w
09!
1:!
1;!
1<!
1I"
0E"
0A"
1E"
0I"
0<!
#260000
0!
0A
0m
0[
0n
#265000
1!
1A
1m
1[
1n
1`"
0~"
1}"
0w
19!
1y
0:!
0;!
1k
0j
1<!
1P
0Q
0+
1*
#270000
0!
0A
0m
0[
0n
#275000
1!
1A
1m
1[
1n
0`"
0_"
1^"
0<!
1=!
1:!
1;!
1w
09!
0y
0:!
1<!
0=!
0>!
0?!
0@!
1A!
1>!
1?!
1@!
0A!
1B!
0B!
#280000
0!
0A
0m
0[
0n
#285000
1!
1A
1m
1[
1n
1`"
0w
19!
1:!
#290000
0!
0A
0m
0[
0n
#295000
1!
1A
1m
1[
1n
0`"
1_"
0:!
0;!
1w
09!
1:!
1;!
0<!
1=!
0>!
0?!
1<!
0=!
1>!
1?!
0@!
1A!
1B!
1@!
0A!
0B!
#300000
0!
0A
0m
0[
0n
#305000
1!
1A
1m
1[
1n
1`"
0w
19!
0:!
0;!
0<!
1=!
0>!
0?!
0@!
1A!
1B!
#310000
0!
0A
0m
0[
0n
#315000
1!
1A
1m
1[
1n
0`"
0_"
0^"
0]"
0\"
1["
0B!
0z
1@!
0A!
1>!
1?!
1<!
0=!
1:!
1;!
1w
09!
0:!
0<!
0>!
0@!
1B!
1z
1{
0{
#320000
0!
0A
0m
0[
0n
#325000
1!
1A
1m
1[
1n
1`"
0w
19!
1:!
#330000
0!
0A
0m
0[
0n
#335000
1!
1A
1m
1[
1n
0`"
1_"
0:!
0;!
1w
09!
1:!
1;!
1<!
0<!
#340000
0!
0A
0m
0[
0n
#345000
1!
1A
1m
1[
1n
1`"
0w
19!
0:!
0;!
1<!
#350000
0!
0A
0m
0[
0n
#355000
1!
1A
1m
1[
1n
0`"
0_"
1^"
0<!
1=!
1:!
1;!
1w
09!
1C!
0:!
1<!
0=!
1>!
0>!
#360000
0!
0A
0m
0[
0n
#365000
1!
1A
1m
1[
1n
1`"
0w
19!
0C!
1:!
#370000
0!
0A
0m
0[
0n
#375000
1!
1A
1m
1[
1n
0`"
1_"
0:!
0;!
1w
09!
1:!
1;!
0<!
1=!
1>!
1<!
0=!
0>!
#380000
0!
0A
0m
0[
0n
#385000
1!
1A
1m
1[
1n
1`"
0w
19!
0:!
0;!
0<!
1=!
1>!
#390000
0!
1,
0A
1R
17"
0m
0[
0;"
0="
1G"
0B"
0E"
0n
#395000
1!
1A
1m
1[
1n
0`"
0_"
0^"
1]"
0C"
0F"
0G"
0L"
1@"
0>!
0?!
1<!
0=!
1:!
1;!
1w
09!
0:!
0<!
1>!
1?!
1@!
0@!
#400000
0!
0A
0m
0[
0n
#405000
1!
1A
1m
1[
1n
1`"
0}"
0w
19!
1:!
0k
0P
0*
#410000
0!
0A
0m
0[
0n
#415000
1!
1A
1m
1[
1n
0`"
1_"
0:!
0;!
1w
09!
1:!
1;!
1<!
0<!
#420000
0!
0A
0m
0[
0n
#425000
1!
1A
1m
1[
1n
1`"
0w
19!
0:!
0;!
1<!
#430000
0!
0A
0m
0[
0n
#435000
1!
1A
1m
1[
1n
0`"
0_"
1^"
0<!
1=!
1:!
1;!
1w
09!
1C!
0:!
1<!
0=!
0>!
0?!
1@!
1>!
1?!
0@!
#440000
0!
0A
0m
0[
0n
#445000
1!
1A
1m
1[
1n
1`"
0w
19!
0C!
1:!
#450000
0!
0A
0m
0[
0n
#455000
1!
1A
1m
1[
1n
0`"
1_"
0:!
0;!
1w
09!
1:!
1;!
0<!
1=!
0>!
0?!
1<!
0=!
1>!
1?!
1@!
0@!
#460000
0!
0A
0m
0[
0n
#465000
1!
1A
1m
1[
1n
1`"
0w
19!
0:!
0;!
0<!
1=!
0>!
0?!
1@!
#470000
0!
0A
0m
0[
0n
#475000
1!
1A
1m
1[
1n
0`"
0_"
0^"
0]"
1\"
0@!
1A!
1>!
1?!
1<!
0=!
1:!
1;!
1w
09!
0:!
0<!
0>!
1@!
0A!
0B!
0z
1{
1B!
1z
0{
#480000
0!
1.
0A
1T
18"
0m
0[
0n
#485000
1!
1A
1m
1[
1n
1`"
0w
19!
1:!
#490000
0!
0,
1-
0A
1S
0R
07"
16"
0m
0[
0n
#495000
1!
1A
1m
1[
1n
0`"
1_"
0:!
0;!
1w
09!
1:!
1;!
1<!
0<!
#500000
0!
0A
0m
0[
0n
#505000
1!
1A
1m
1[
1n
1`"
0w
19!
0:!
0;!
1<!
#510000
0!
0-
0.
0A
0T
0S
06"
08"
0m
0[
1;"
1="
0@"
1>"
1D"
0H"
0n
1A"
1B"
1E"
#515000
1!
1A
1m
1[
1n
0`"
0_"
1^"
1C"
1F"
1L"
0>"
0D"
1H"
0<!
1=!
1:!
1;!
1w
09!
1C!
0:!
1<!
0=!
1>!
1I"
0E"
0A"
1E"
0I"
0>!
#520000
0!
0A
0m
0[
0n
#525000
1!
1A
1m
1[
1n
1`"
1}"
0w
19!
0C!
1:!
1k
1P
1*
#530000
0!
0A
0m
0[
0n
#535000
1!
1A
1m
1[
1n
0`"
1_"
0:!
0;!
1w
09!
1:!
1;!
0<!
1=!
1>!
1<!
0=!
0>!
#540000
0!
0A
0m
0[
0n
#545000
1!
1A
1m
1[
1n
1`"
0w
19!
0:!
0;!
0<!
1=!
1>!
#550000
0!
0A
0m
0[
0n
#555000
1!
1A
1m
1[
1n
0`"
0_"
0^"
1]"
0>!
0?!
1<!
0=!
1:!
1;!
1w
09!
0:!
0<!
1>!
1?!
0@!
1A!
0B!
0z
1@!
0A!
1B!
1z
1{
0{
#560000
0!
0A
0m
0[
0n
#565000
1!
1A
1m
1[
1n
1`"
0w
19!
1:!
#570000
0!
0A
0m
0[
0n
#575000
1!
1A
1m
1[
1n
0`"
1_"
0:!
0;!
1w
09!
1:!
1;!
1<!
0<!
#580000
0!
1-
0A
1S
16"
0m
0[
0:"
0;"
1@"
1A"
0n
0E"
1I"
